results/waveform.vcd
$date
	Thu May  7 11:27:12 2026
$end
$version
	Icarus Verilog
$end
$timescale
	1ps
$end
$scope module tb_riscv $end
$var reg 1 ! clk $end
$var reg 1024 " prog_file [1023:0] $end
$var reg 1 # reset $end
$var reg 1024 $ testname [1023:0] $end
$var integer 32 % cycles [31:0] $end
$var integer 32 & i [31:0] $end
$var integer 32 ' log_fd [31:0] $end
$var integer 32 ( test_pass [31:0] $end
$scope module uut $end
$var wire 1 ! clk $end
$var wire 32 ) debug_pc [31:0] $end
$var wire 32 * debug_wb_data [31:0] $end
$var wire 5 + debug_wb_rd [4:0] $end
$var wire 1 , debug_wb_reg_write $end
$var wire 1 - flush_decode $end
$var wire 1 # reset $end
$var wire 32 . wb_write_data [31:0] $end
$var wire 1 / stall $end
$var wire 1 0 mem_wb_reg_write $end
$var wire 5 1 mem_wb_rd [4:0] $end
$var wire 1 2 mem_wb_mem_to_reg $end
$var wire 32 3 mem_wb_mem_read_data [31:0] $end
$var wire 32 4 mem_wb_alu_result [31:0] $end
$var wire 32 5 mem_read_data [31:0] $end
$var wire 32 6 if_pc [31:0] $end
$var wire 32 7 if_instr [31:0] $end
$var wire 32 8 if_id_pc [31:0] $end
$var wire 32 9 if_id_instr [31:0] $end
$var wire 32 : id_rs2_data [31:0] $end
$var wire 5 ; id_rs2 [4:0] $end
$var wire 32 < id_rs1_data [31:0] $end
$var wire 5 = id_rs1 [4:0] $end
$var wire 1 > id_reg_write $end
$var wire 5 ? id_rd [4:0] $end
$var wire 1 @ id_mem_write $end
$var wire 1 A id_mem_to_reg $end
$var wire 1 B id_mem_read $end
$var wire 1 C id_lui $end
$var wire 1 D id_jump $end
$var wire 32 E id_imm [31:0] $end
$var wire 32 F id_ex_rs2_data [31:0] $end
$var wire 5 G id_ex_rs2 [4:0] $end
$var wire 32 H id_ex_rs1_data [31:0] $end
$var wire 5 I id_ex_rs1 [4:0] $end
$var wire 1 J id_ex_reg_write $end
$var wire 5 K id_ex_rd [4:0] $end
$var wire 32 L id_ex_pc [31:0] $end
$var wire 1 M id_ex_mem_write $end
$var wire 1 N id_ex_mem_to_reg $end
$var wire 1 O id_ex_mem_read $end
$var wire 1 P id_ex_lui $end
$var wire 1 Q id_ex_jump $end
$var wire 32 R id_ex_imm [31:0] $end
$var wire 1 S id_ex_branch $end
$var wire 1 T id_ex_alu_src $end
$var wire 4 U id_ex_alu_ctrl [3:0] $end
$var wire 1 V id_branch $end
$var wire 1 W id_alu_src $end
$var wire 4 X id_alu_ctrl [3:0] $end
$var wire 2 Y forward_b [1:0] $end
$var wire 2 Z forward_a [1:0] $end
$var wire 32 [ ex_store_data [31:0] $end
$var wire 32 \ ex_pc_target [31:0] $end
$var wire 1 ] ex_pc_src $end
$var wire 32 ^ ex_mem_store_data [31:0] $end
$var wire 1 _ ex_mem_reg_write $end
$var wire 5 ` ex_mem_rd [4:0] $end
$var wire 1 a ex_mem_mem_write $end
$var wire 1 b ex_mem_mem_to_reg $end
$var wire 1 c ex_mem_mem_read $end
$var wire 32 d ex_mem_alu_result [31:0] $end
$var wire 32 e ex_alu_result [31:0] $end
$scope module u_decode $end
$var wire 1 ! clk $end
$var wire 1 # reset $end
$var wire 1 0 wb_reg_write $end
$var wire 5 f wb_rd [4:0] $end
$var wire 32 g wb_data [31:0] $end
$var wire 32 h rs2_data [31:0] $end
$var wire 5 i rs2 [4:0] $end
$var wire 32 j rs1_data [31:0] $end
$var wire 5 k rs1 [4:0] $end
$var wire 1 > reg_write $end
$var wire 5 l rd [4:0] $end
$var wire 7 m opcode [6:0] $end
$var wire 1 @ mem_write $end
$var wire 1 A mem_to_reg $end
$var wire 1 B mem_read $end
$var wire 1 C lui $end
$var wire 1 D jump $end
$var wire 32 n instr [31:0] $end
$var wire 7 o funct7 [6:0] $end
$var wire 3 p funct3 [2:0] $end
$var wire 1 V branch $end
$var wire 1 W alu_src $end
$var wire 4 q alu_ctrl [3:0] $end
$var reg 32 r imm [31:0] $end
$scope module u_control $end
$var wire 3 s funct3 [2:0] $end
$var wire 7 t funct7 [6:0] $end
$var wire 7 u opcode [6:0] $end
$var parameter 4 v ALU_ADD $end
$var parameter 4 w ALU_AND $end
$var parameter 4 x ALU_OR $end
$var parameter 4 y ALU_SLL $end
$var parameter 4 z ALU_SLT $end
$var parameter 4 { ALU_SRL $end
$var parameter 4 | ALU_SUB $end
$var parameter 4 } ALU_XOR $end
$var parameter 7 ~ OP_BRANCH $end
$var parameter 7 !" OP_ITYPE $end
$var parameter 7 "" OP_JAL $end
$var parameter 7 #" OP_LOAD $end
$var parameter 7 $" OP_LUI $end
$var parameter 7 %" OP_RTYPE $end
$var parameter 7 &" OP_STORE $end
$var reg 4 '" alu_ctrl [3:0] $end
$var reg 1 W alu_src $end
$var reg 1 V branch $end
$var reg 1 D jump $end
$var reg 1 C lui $end
$var reg 1 B mem_read $end
$var reg 1 A mem_to_reg $end
$var reg 1 @ mem_write $end
$var reg 1 > reg_write $end
$upscope $end
$scope module u_regfile $end
$var wire 1 ! clk $end
$var wire 1 # reset $end
$var wire 5 (" rs1 [4:0] $end
$var wire 5 )" rs2 [4:0] $end
$var wire 1 0 we $end
$var wire 32 *" wd [31:0] $end
$var wire 32 +" rd2 [31:0] $end
$var wire 32 ," rd1 [31:0] $end
$var wire 5 -" rd [4:0] $end
$var integer 32 ." i [31:0] $end
$upscope $end
$upscope $end
$scope module u_ex_mem_reg $end
$var wire 1 ! clk $end
$var wire 1 # reset $end
$var wire 32 /" store_data_in [31:0] $end
$var wire 1 J reg_write_in $end
$var wire 5 0" rd_in [4:0] $end
$var wire 1 M mem_write_in $end
$var wire 1 N mem_to_reg_in $end
$var wire 1 O mem_read_in $end
$var wire 32 1" alu_result_in [31:0] $end
$var reg 32 2" alu_result_out [31:0] $end
$var reg 1 c mem_read_out $end
$var reg 1 b mem_to_reg_out $end
$var reg 1 a mem_write_out $end
$var reg 5 3" rd_out [4:0] $end
$var reg 1 _ reg_write_out $end
$var reg 32 4" store_data_out [31:0] $end
$upscope $end
$scope module u_execute $end
$var wire 32 5" ex_mem_alu_result [31:0] $end
$var wire 1 ] pc_src $end
$var wire 32 6" store_data [31:0] $end
$var wire 1 7" zero $end
$var wire 32 8" rs2_data [31:0] $end
$var wire 32 9" rs1_data [31:0] $end
$var wire 32 :" raw_alu_result [31:0] $end
$var wire 32 ;" pc_target [31:0] $end
$var wire 32 <" pc [31:0] $end
$var wire 32 =" operand_b [31:0] $end
$var wire 32 >" operand_a [31:0] $end
$var wire 32 ?" mem_wb_write_data [31:0] $end
$var wire 1 P lui $end
$var wire 1 Q jump $end
$var wire 32 @" imm [31:0] $end
$var wire 32 A" forwarded_rs2 [31:0] $end
$var wire 2 B" forward_b [1:0] $end
$var wire 2 C" forward_a [1:0] $end
$var wire 1 S branch $end
$var wire 1 T alu_src $end
$var wire 32 D" alu_result [31:0] $end
$var wire 4 E" alu_ctrl [3:0] $end
$scope module u_alu $end
$var wire 32 F" a [31:0] $end
$var wire 32 G" b [31:0] $end
$var wire 1 7" zero $end
$var wire 4 H" alu_ctrl [3:0] $end
$var parameter 4 I" ALU_ADD $end
$var parameter 4 J" ALU_AND $end
$var parameter 4 K" ALU_OR $end
$var parameter 4 L" ALU_SLL $end
$var parameter 4 M" ALU_SLT $end
$var parameter 4 N" ALU_SRL $end
$var parameter 4 O" ALU_SUB $end
$var parameter 4 P" ALU_XOR $end
$var reg 32 Q" result [31:0] $end
$upscope $end
$upscope $end
$scope module u_fetch $end
$var wire 1 ! clk $end
$var wire 1 ] pc_src $end
$var wire 32 R" pc_target [31:0] $end
$var wire 1 # reset $end
$var wire 1 / stall $end
$var wire 32 S" instr [31:0] $end
$var reg 32 T" pc [31:0] $end
$scope module u_imem $end
$var wire 32 U" addr [31:0] $end
$var wire 32 V" instr [31:0] $end
$var parameter 32 W" MEM_WORDS $end
$var integer 32 X" i [31:0] $end
$scope task load_mem $end
$var reg 1024 Y" filename [1023:0] $end
$var reg 32 Z" word [31:0] $end
$var integer 32 [" code [31:0] $end
$var integer 32 \" fd [31:0] $end
$var integer 32 ]" idx [31:0] $end
$upscope $end
$upscope $end
$upscope $end
$scope module u_hazard $end
$var wire 5 ^" ex_mem_rd [4:0] $end
$var wire 1 _ ex_mem_reg_write $end
$var wire 5 _" if_id_rs1 [4:0] $end
$var wire 5 `" if_id_rs2 [4:0] $end
$var wire 1 / stall $end
$var wire 1 0 mem_wb_reg_write $end
$var wire 5 a" mem_wb_rd [4:0] $end
$var wire 5 b" id_ex_rs2 [4:0] $end
$var wire 5 c" id_ex_rs1 [4:0] $end
$var wire 5 d" id_ex_rd [4:0] $end
$var wire 1 O id_ex_mem_read $end
$var reg 2 e" forward_a [1:0] $end
$var reg 2 f" forward_b [1:0] $end
$upscope $end
$scope module u_id_ex_reg $end
$var wire 4 g" alu_ctrl_in [3:0] $end
$var wire 1 W alu_src_in $end
$var wire 1 V branch_in $end
$var wire 1 ! clk $end
$var wire 1 - flush $end
$var wire 32 h" imm_in [31:0] $end
$var wire 1 D jump_in $end
$var wire 1 C lui_in $end
$var wire 1 B mem_read_in $end
$var wire 1 A mem_to_reg_in $end
$var wire 1 @ mem_write_in $end
$var wire 5 i" rd_in [4:0] $end
$var wire 1 > reg_write_in $end
$var wire 1 # reset $end
$var wire 32 j" rs1_data_in [31:0] $end
$var wire 5 k" rs1_in [4:0] $end
$var wire 32 l" rs2_data_in [31:0] $end
$var wire 5 m" rs2_in [4:0] $end
$var wire 32 n" pc_in [31:0] $end
$var reg 4 o" alu_ctrl_out [3:0] $end
$var reg 1 T alu_src_out $end
$var reg 1 S branch_out $end
$var reg 32 p" imm_out [31:0] $end
$var reg 1 Q jump_out $end
$var reg 1 P lui_out $end
$var reg 1 O mem_read_out $end
$var reg 1 N mem_to_reg_out $end
$var reg 1 M mem_write_out $end
$var reg 32 q" pc_out [31:0] $end
$var reg 5 r" rd_out [4:0] $end
$var reg 1 J reg_write_out $end
$var reg 32 s" rs1_data_out [31:0] $end
$var reg 5 t" rs1_out [4:0] $end
$var reg 32 u" rs2_data_out [31:0] $end
$var reg 5 v" rs2_out [4:0] $end
$upscope $end
$scope module u_if_id_reg $end
$var wire 1 ! clk $end
$var wire 1 w" enable $end
$var wire 1 ] flush $end
$var wire 32 x" instr_in [31:0] $end
$var wire 32 y" pc_in [31:0] $end
$var wire 1 # reset $end
$var reg 32 z" instr_out [31:0] $end
$var reg 32 {" pc_out [31:0] $end
$upscope $end
$scope module u_mem_stage $end
$var wire 32 |" alu_result [31:0] $end
$var wire 1 ! clk $end
$var wire 1 c mem_read $end
$var wire 1 a mem_write $end
$var wire 32 }" store_data [31:0] $end
$var wire 32 ~" mem_read_data [31:0] $end
$scope module u_dmem $end
$var wire 32 !# addr [31:0] $end
$var wire 1 ! clk $end
$var wire 1 c mem_read $end
$var wire 1 a mem_write $end
$var wire 32 "# write_data [31:0] $end
$var wire 32 ## read_data [31:0] $end
$var parameter 32 $# MEM_WORDS $end
$var integer 32 %# i [31:0] $end
$scope task clear_mem $end
$upscope $end
$upscope $end
$upscope $end
$scope module u_mem_wb_reg $end
$var wire 32 &# alu_result_in [31:0] $end
$var wire 1 ! clk $end
$var wire 32 '# mem_read_data_in [31:0] $end
$var wire 1 b mem_to_reg_in $end
$var wire 5 (# rd_in [4:0] $end
$var wire 1 _ reg_write_in $end
$var wire 1 # reset $end
$var reg 32 )# alu_result_out [31:0] $end
$var reg 32 *# mem_read_data_out [31:0] $end
$var reg 1 2 mem_to_reg_out $end
$var reg 5 +# rd_out [4:0] $end
$var reg 1 0 reg_write_out $end
$upscope $end
$scope module u_writeback $end
$var wire 32 ,# alu_result [31:0] $end
$var wire 32 -# mem_read_data [31:0] $end
$var wire 1 2 mem_to_reg $end
$var wire 32 .# write_data [31:0] $end
$upscope $end
$upscope $end
$scope task check_mem $end
$var reg 32 /# byte_addr [31:0] $end
$var reg 32 0# expected [31:0] $end
$upscope $end
$scope task check_reg $end
$var reg 32 1# expected [31:0] $end
$var reg 5 2# regnum [4:0] $end
$upscope $end
$upscope $end
$enddefinitions $end
$comment Show the parameter values. $end
$dumpall
b100000000 $#
b100000000 W"
b100 P"
b1 O"
b111 N"
b101 M"
b110 L"
b11 K"
b10 J"
b0 I"
b100011 &"
b110011 %"
b110111 $"
b11 #"
b1101111 ""
b10011 !"
b1100011 ~
b100 }
b1 |
b111 {
b101 z
b110 y
b11 x
b10 w
b0 v
$end
#0
$dumpvars
bx 2#
bx 1#
bx 0#
bx /#
bx .#
bx -#
bx ,#
bx +#
bx *#
bx )#
bx (#
bx '#
bx &#
b100000000 %#
bx ##
bx "#
bx !#
bx ~"
bx }"
bx |"
bx {"
bx z"
bx y"
bx x"
xw"
bx v"
bx u"
bx t"
bx s"
bx r"
bx q"
bx p"
bx o"
bx n"
bx m"
bx l"
bx k"
bx j"
bx i"
bx h"
bx g"
bx f"
bx e"
bx d"
bx c"
bx b"
bx a"
bx `"
bx _"
bx ^"
b11011 ]"
b10000000000000000000000000000011 \"
b1 ["
b1100000000010010100000011 Z"
b11101000110010101110011011101000111001100101111011000100111010101100010011000100110110001100101010111110111001101101111011100100111010000101110011011010110010101101101 Y"
b100000000 X"
bx V"
bx U"
bx T"
bx S"
bx R"
bx Q"
bx H"
bx G"
bx F"
bx E"
bx D"
bx C"
bx B"
bx A"
bx @"
bx ?"
bx >"
bx ="
bx <"
bx ;"
bx :"
bx 9"
bx 8"
x7"
bx 6"
bx 5"
bx 4"
bx 3"
bx 2"
bx 1"
bx 0"
bx /"
bx ."
bx -"
bx ,"
bx +"
bx *"
bx )"
bx ("
bx '"
bx u
bx t
bx s
bx r
bx q
bx p
bx o
bx n
bx m
bx l
bx k
bx j
bx i
bx h
bx g
bx f
bx e
bx d
xc
xb
xa
bx `
x_
bx ^
x]
bx \
bx [
bx Z
bx Y
bx X
xW
xV
bx U
xT
xS
bx R
xQ
xP
xO
xN
xM
bx L
bx K
xJ
bx I
bx H
bx G
bx F
bx E
xD
xC
xB
xA
x@
bx ?
x>
bx =
bx <
bx ;
bx :
bx 9
bx 8
bx 7
bx 6
bx 5
bx 4
bx 3
x2
bx 1
x0
x/
bx .
x-
x,
bx +
bx *
bx )
b1 (
bx '
bx &
b10100000 %
b110001001110101011000100110001001101100011001010101111101110011011011110111001001110100 $
1#
b11101000110010101110011011101000111001100101111011000100111010101100010011000100110110001100101010111110111001101101111011100100111010000101110011011010110010101101101 "
0!
$end
#5000
b0 e
b0 1"
b0 D"
17"
b0 :"
b0 Q"
1w"
b0 ="
b0 G"
b0 :
b0 h
b0 +"
b0 l"
b0 <
b0 j
b0 ,"
b0 j"
b0 X
b0 q
b0 '"
b0 g"
0C
0D
0V
1W
0A
0@
0B
1>
0-
0/
b0 [
b0 /"
b0 6"
b0 A"
b0 >"
b0 F"
b1100000000000010010011 7
b1100000000000010010011 S"
b1100000000000010010011 V"
b1100000000000010010011 x"
b0 ;
b0 i
b0 )"
b0 `"
b0 m"
b0 =
b0 k
b0 ("
b0 _"
b0 k"
b0 ?
b0 l
b0 i"
b0 o
b0 t
b0 p
b0 s
b10011 m
b10011 u
b0 E
b0 r
b0 h"
0]
b0 5
b0 ~"
b0 ##
b0 '#
b0 Y
b0 B"
b0 f"
b0 Z
b0 C"
b0 e"
b0 *
b0 .
b0 g
b0 *"
b0 ?"
b0 .#
b0 )
b0 6
b0 T"
b0 U"
b0 y"
b10011 9
b10011 n
b10011 z"
b0 8
b0 n"
b0 {"
b0 U
b0 E"
b0 H"
b0 o"
0P
0Q
0S
0T
0N
0M
0O
0J
b0 K
b0 0"
b0 d"
b0 r"
b0 G
b0 b"
b0 v"
b0 I
b0 c"
b0 t"
b0 \
b0 ;"
b0 R"
b0 R
b0 @"
b0 p"
b0 F
b0 8"
b0 u"
b0 H
b0 9"
b0 s"
b0 L
b0 <"
b0 q"
0b
0a
0c
0_
b0 `
b0 3"
b0 ^"
b0 (#
b0 ^
b0 4"
b0 }"
b0 "#
b0 d
b0 2"
b0 5"
b0 |"
b0 !#
b0 &#
02
0,
00
b0 +
b0 1
b0 f
b0 -"
b0 a"
b0 +#
b0 3
b0 *#
b0 -#
b0 4
b0 )#
b0 ,#
b100000 ."
1!
#10000
0!
#15000
b100000 ."
1!
#20000
0!
b0 &
0#
#25000
b100000010100000100011 7
b100000010100000100011 S"
b100000010100000100011 V"
b100000010100000100011 x"
b11 ;
b11 i
b11 )"
b11 `"
b11 m"
b1 ?
b1 l
b1 i"
b11 E
b11 r
b11 h"
b100 )
b100 6
b100 T"
b100 U"
b100 y"
b1100000000000010010011 9
b1100000000000010010011 n
b1100000000000010010011 z"
1T
1J
b1 &
1!
#30000
0!
#35000
b11 e
b11 1"
b11 D"
07"
b11 :"
b11 Q"
1@
1W
0>
b11 ="
b11 G"
b1 ;
b1 i
b1 )"
b1 `"
b1 m"
b10000 ?
b10000 l
b10000 i"
b10 p
b10 s
b100011 m
b100011 u
b10000 E
b10000 r
b10000 h"
b100000000000010010011 7
b100000000000010010011 S"
b100000000000010010011 V"
b100000000000010010011 x"
1_
b1 K
b1 0"
b1 d"
b1 r"
b11 G
b11 b"
b11 v"
b11 \
b11 ;"
b11 R"
b11 R
b11 @"
b11 p"
b100000010100000100011 9
b100000010100000100011 n
b100000010100000100011 z"
b100 8
b100 n"
b100 {"
b1000 )
b1000 6
b1000 T"
b1000 U"
b1000 y"
b10 &
1!
#40000
0!
#45000
b10000 e
b10000 1"
b10000 D"
1>
1W
0@
b10000 :"
b10000 Q"
b11 [
b11 /"
b11 6"
b11 A"
b100000010101000100011 7
b100000010101000100011 S"
b100000010101000100011 V"
b100000010101000100011 x"
b1 ?
b1 l
b1 i"
b0 p
b0 s
b10011 m
b10011 u
b1 E
b1 r
b1 h"
b10000 ="
b10000 G"
b10 Y
b10 B"
b10 f"
b1100 )
b1100 6
b1100 T"
b1100 U"
b1100 y"
b100000000000010010011 9
b100000000000010010011 n
b100000000000010010011 z"
b1000 8
b1000 n"
b1000 {"
1M
0J
b10000 K
b10000 0"
b10000 d"
b10000 r"
b1 G
b1 b"
b1 v"
b10000 R
b10000 @"
b10000 p"
b10100 \
b10100 ;"
b10100 R"
b100 L
b100 <"
b100 q"
b1 `
b1 3"
b1 ^"
b1 (#
b11 d
b11 2"
b11 5"
b11 |"
b11 !#
b11 &#
1,
10
b11 &
1!
#50000
0!
#55000
b1 e
b1 1"
b1 D"
b11 :
b11 h
b11 +"
b11 l"
b1 :"
b1 Q"
1@
1W
0>
b10100 E
b10100 r
b10100 h"
b11 *
b11 .
b11 g
b11 *"
b11 ?"
b11 .#
b1 Y
b1 B"
b1 f"
b11 [
b11 /"
b11 6"
b11 A"
b1 ="
b1 G"
b10100 ?
b10100 l
b10100 i"
b10 p
b10 s
b100011 m
b100011 u
b1000000000000010010011 7
b1000000000000010010011 S"
b1000000000000010010011 V"
b1000000000000010010011 x"
b1 +
b1 1
b1 f
b1 -"
b1 a"
b1 +#
b11 4
b11 )#
b11 ,#
1a
0_
b10000 `
b10000 3"
b10000 ^"
b10000 (#
b11 ^
b11 4"
b11 }"
b11 "#
b10000 d
b10000 2"
b10000 5"
b10000 |"
b10000 !#
b10000 &#
0M
1J
b1 K
b1 0"
b1 d"
b1 r"
b1 R
b1 @"
b1 p"
b1001 \
b1001 ;"
b1001 R"
b1000 L
b1000 <"
b1000 q"
b100000010101000100011 9
b100000010101000100011 n
b100000010101000100011 z"
b1100 8
b1100 n"
b1100 {"
b10000 )
b10000 6
b10000 T"
b10000 U"
b10000 y"
b100 &
1!
#60000
0!
#65000
b10100 e
b10100 1"
b10100 D"
b0 :
b0 h
b0 +"
b0 l"
1>
1W
0@
b10100 :"
b10100 Q"
b1 [
b1 /"
b1 6"
b1 A"
b100000010110000100011 7
b100000010110000100011 S"
b100000010110000100011 V"
b100000010110000100011 x"
b10 ;
b10 i
b10 )"
b10 `"
b10 m"
b1 ?
b1 l
b1 i"
b0 p
b0 s
b10011 m
b10011 u
b10 E
b10 r
b10 h"
b10100 ="
b10100 G"
b10 Y
b10 B"
b10 f"
b10000 *
b10000 .
b10000 g
b10000 *"
b10000 ?"
b10000 .#
b10100 )
b10100 6
b10100 T"
b10100 U"
b10100 y"
b1000000000000010010011 9
b1000000000000010010011 n
b1000000000000010010011 z"
b10000 8
b10000 n"
b10000 {"
1M
0J
b10100 K
b10100 0"
b10100 d"
b10100 r"
b10100 R
b10100 @"
b10100 p"
b11 F
b11 8"
b11 u"
b100000 \
b100000 ;"
b100000 R"
b1100 L
b1100 <"
b1100 q"
0a
1_
b1 `
b1 3"
b1 ^"
b1 (#
b1 d
b1 2"
b1 5"
b1 |"
b1 !#
b1 &#
0,
00
b10000 +
b10000 1
b10000 f
b10000 -"
b10000 a"
b10000 +#
b10000 4
b10000 )#
b10000 ,#
b101 &
1!
#70000
0!
#75000
b10 e
b10 1"
b10 D"
b1 :
b1 h
b1 +"
b1 l"
b10 :"
b10 Q"
1@
1W
0>
b1 *
b1 .
b1 g
b1 *"
b1 ?"
b1 .#
b0 [
b0 /"
b0 6"
b0 A"
b0 Y
b0 B"
b0 f"
b10 ="
b10 G"
b1 ;
b1 i
b1 )"
b1 `"
b1 m"
b11000 ?
b11000 l
b11000 i"
b10 p
b10 s
b100011 m
b100011 u
b11000 E
b11000 r
b11000 h"
b1000000000010001010000011 7
b1000000000010001010000011 S"
b1000000000010001010000011 V"
b1000000000010001010000011 x"
1,
10
b1 +
b1 1
b1 f
b1 -"
b1 a"
b1 +#
b1 4
b1 )#
b1 ,#
1a
0_
b10100 `
b10100 3"
b10100 ^"
b10100 (#
b1 ^
b1 4"
b1 }"
b1 "#
b10100 d
b10100 2"
b10100 5"
b10100 |"
b10100 !#
b10100 &#
0M
1J
b1 K
b1 0"
b1 d"
b1 r"
b10 G
b10 b"
b10 v"
b10 R
b10 @"
b10 p"
b0 F
b0 8"
b0 u"
b10010 \
b10010 ;"
b10010 R"
b10000 L
b10000 <"
b10000 q"
b100000010110000100011 9
b100000010110000100011 n
b100000010110000100011 z"
b10100 8
b10100 n"
b10100 {"
b11000 )
b11000 6
b11000 T"
b11000 U"
b11000 y"
b110 &
1!
#80000
0!
#85000
b11000 e
b11000 1"
b11000 D"
b0 :
b0 h
b0 +"
b0 l"
1A
1B
1>
1W
0@
b11000 :"
b11000 Q"
b10 [
b10 /"
b10 6"
b10 A"
b1010000000010001100000011 7
b1010000000010001100000011 S"
b1010000000010001100000011 V"
b1010000000010001100000011 x"
b10000 ;
b10000 i
b10000 )"
b10000 `"
b10000 m"
b101 ?
b101 l
b101 i"
b11 m
b11 u
b10000 E
b10000 r
b10000 h"
b11000 ="
b11000 G"
b10 Y
b10 B"
b10 f"
b10100 *
b10100 .
b10100 g
b10100 *"
b10100 ?"
b10100 .#
b11100 )
b11100 6
b11100 T"
b11100 U"
b11100 y"
b1000000000010001010000011 9
b1000000000010001010000011 n
b1000000000010001010000011 z"
b11000 8
b11000 n"
b11000 {"
1M
0J
b11000 K
b11000 0"
b11000 d"
b11000 r"
b1 G
b1 b"
b1 v"
b11000 R
b11000 @"
b11000 p"
b1 F
b1 8"
b1 u"
b101100 \
b101100 ;"
b101100 R"
b10100 L
b10100 <"
b10100 q"
0a
1_
b1 `
b1 3"
b1 ^"
b1 (#
b0 ^
b0 4"
b0 }"
b0 "#
b10 d
b10 2"
b10 5"
b10 |"
b10 !#
b10 &#
0,
00
b10100 +
b10100 1
b10100 f
b10100 -"
b10100 a"
b10100 +#
b10100 4
b10100 )#
b10100 ,#
b111 &
1!
#90000
0!
#95000
b10000 e
b10000 1"
b10000 D"
b10000 :"
b10000 Q"
b10 *
b10 .
b10 g
b10 *"
b10 ?"
b10 .#
b0 [
b0 /"
b0 6"
b0 A"
b0 Y
b0 B"
b0 f"
b10000 ="
b10000 G"
b10100 ;
b10100 i
b10100 )"
b10100 `"
b10100 m"
b110 ?
b110 l
b110 i"
b10100 E
b10100 r
b10100 h"
b10100110010001110110011 7
b10100110010001110110011 S"
b10100110010001110110011 V"
b10100110010001110110011 x"
1,
10
b1 +
b1 1
b1 f
b1 -"
b1 a"
b1 +#
b10 4
b10 )#
b10 ,#
1a
0_
b11000 `
b11000 3"
b11000 ^"
b11000 (#
b10 ^
b10 4"
b10 }"
b10 "#
b11000 d
b11000 2"
b11000 5"
b11000 |"
b11000 !#
b11000 &#
1N
0M
1O
1J
b101 K
b101 0"
b101 d"
b101 r"
b10000 G
b10000 b"
b10000 v"
b10000 R
b10000 @"
b10000 p"
b0 F
b0 8"
b0 u"
b101000 \
b101000 ;"
b101000 R"
b11000 L
b11000 <"
b11000 q"
b1010000000010001100000011 9
b1010000000010001100000011 n
b1010000000010001100000011 z"
b11100 8
b11100 n"
b11100 {"
b100000 )
b100000 6
b100000 T"
b100000 U"
b100000 y"
b1000 &
1!
#100000
0!
#105000
0w"
1-
b10100 e
b10100 1"
b10100 D"
1/
b101 X
b101 q
b101 '"
b101 g"
0W
0A
0B
1>
b10100 :"
b10100 Q"
b111000011001100011 7
b111000011001100011 S"
b111000011001100011 V"
b111000011001100011 x"
b101 ;
b101 i
b101 )"
b101 `"
b101 m"
b110 =
b110 k
b110 ("
b110 _"
b110 k"
b111 ?
b111 l
b111 i"
b110011 m
b110011 u
b0 E
b0 r
b0 h"
b10100 ="
b10100 G"
b11 5
b11 ~"
b11 ##
b11 '#
b11000 *
b11000 .
b11000 g
b11000 *"
b11000 ?"
b11000 .#
b100100 )
b100100 6
b100100 T"
b100100 U"
b100100 y"
b10100110010001110110011 9
b10100110010001110110011 n
b10100110010001110110011 z"
b100000 8
b100000 n"
b100000 {"
b110 K
b110 0"
b110 d"
b110 r"
b10100 G
b10100 b"
b10100 v"
b10100 R
b10100 @"
b10100 p"
b110000 \
b110000 ;"
b110000 R"
b11100 L
b11100 <"
b11100 q"
1b
0a
1c
1_
b101 `
b101 3"
b101 ^"
b101 (#
b0 ^
b0 4"
b0 }"
b0 "#
b10000 d
b10000 2"
b10000 5"
b10000 |"
b10000 !#
b10000 &#
0,
00
b11000 +
b11000 1
b11000 f
b11000 -"
b11000 a"
b11000 +#
b11000 4
b11000 )#
b11000 ,#
b1001 &
1!
#110000
0!
#115000
b11 :
b11 h
b11 +"
b11 l"
b0 e
b0 1"
b0 D"
1w"
0-
b1 5
b1 ~"
b1 ##
b1 '#
0/
17"
b0 :"
b0 Q"
b11 *
b11 .
b11 g
b11 *"
b11 ?"
b11 .#
b0 ="
b0 G"
12
1,
10
b101 +
b101 1
b101 f
b101 -"
b101 a"
b101 +#
b11 3
b11 *#
b11 -#
b10000 4
b10000 )#
b10000 ,#
b110 `
b110 3"
b110 ^"
b110 (#
b10100 d
b10100 2"
b10100 5"
b10100 |"
b10100 !#
b10100 &#
0T
0N
0O
0J
b0 K
b0 0"
b0 d"
b0 r"
b0 G
b0 b"
b0 v"
b0 R
b0 @"
b0 p"
b0 \
b0 ;"
b0 R"
b0 L
b0 <"
b0 q"
b1010 &
1!
#120000
0!
#125000
b1 e
b1 1"
b1 D"
b0 <
b0 j
b0 ,"
b0 j"
07"
b1 :"
b1 Q"
b11 ="
b11 G"
b1 >"
b1 F"
b0 :
b0 h
b0 +"
b0 l"
1V
b1 X
b1 q
b1 '"
b1 g"
0>
b1100 E
b1100 r
b1100 h"
b11 [
b11 /"
b11 6"
b11 A"
b11000000010100000100011 7
b11000000010100000100011 S"
b11000000010100000100011 V"
b11000000010100000100011 x"
b0 ;
b0 i
b0 )"
b0 `"
b0 m"
b111 =
b111 k
b111 ("
b111 _"
b111 k"
b1100 ?
b1100 l
b1100 i"
b0 p
b0 s
b1100011 m
b1100011 u
b0 5
b0 ~"
b0 ##
b0 '#
b1 Z
b1 C"
b1 e"
b1 *
b1 .
b1 g
b1 *"
b1 ?"
b1 .#
b101000 )
b101000 6
b101000 T"
b101000 U"
b101000 y"
b111000011001100011 9
b111000011001100011 n
b111000011001100011 z"
b100100 8
b100100 n"
b100100 {"
b101 U
b101 E"
b101 H"
b101 o"
1J
b111 K
b111 0"
b111 d"
b111 r"
b101 G
b101 b"
b101 v"
b110 I
b110 c"
b110 t"
b11 F
b11 8"
b11 u"
b100000 \
b100000 ;"
b100000 R"
b100000 L
b100000 <"
b100000 q"
0b
0c
0_
b0 `
b0 3"
b0 ^"
b0 (#
b0 d
b0 2"
b0 5"
b0 |"
b0 !#
b0 &#
b110 +
b110 1
b110 f
b110 -"
b110 a"
b110 +#
b1 3
b1 *#
b1 -#
b10100 4
b10100 )#
b10100 ,#
b1011 &
1!
#130000
0!
